{"properties": [
  {
    "name": "marketing.logic.enabled",
    "type": "java.lang.String",
    "description": "A description for 'marketing.logic.enabled'"
  },
  {
    "name": "der.enrichment.enabled",
    "type": "java.lang.String",
    "description": "A description for 'der.enrichment.enabled'"
  },
  {
    "name": "kafka.bootstrapServer",
    "type": "java.lang.String",
    "description": "A description for 'kafka.bootstrapServer'"
  }
]}